{
  "1":{
    "1":[[6,51],[8,44],[12,37],[14,9],[16,26],[18,13]],
    "2":[[6,50],[8,44],[12,38],[14,10],[16,27],[18,14]],
    "3":[[6,50],[8,44],[12,38],[14,11],[16,28],[18,15]],
    "4":[[6,50],[8,44],[12,38],[14,12],[16,29],[18,16]],
    "5":[[6,50],[8,44],[12,39],[14,13],[16,30],[18,17]],
    "6":[[6,50],[8,43],[12,39],[14,14],[16,31],[18,18]],
    "7":[[6,50],[8,43],[12,40],[14,15],[16,33],[18,19]],
    "8":[[6,49],[8,42],[12,40],[14,16],[16,34],[18,21]],
    "9":[[6,49],[8,42],[12,41],[14,17],[16,35],[18,22]],
    "10":[[6,49],[8,41],[12,41],[14,18],[16,37],[18,23]],
    "11":[[6,48],[8,40],[12,41],[14,19],[16,38],[18,24]],
    "12":[[6,48],[8,40],[12,42],[14,21],[16,40],[18,25]],
    "13":[[6,47],[8,39],[12,42],[14,22],[16,41],[18,27]],
    "14":[[6,47],[8,38],[12,42],[14,23],[16,43],[18,28]],
    "15":[[6,46],[8,37],[12,43],[14,25],[16,44],[18,29]],
    "16":[[6,45],[8,36],[12,43],[14,26],[16,46],[18,31]],
    "17":[[6,45],[8,35],[12,43],[14,27],[16,48],[18,32]],
    "18":[[6,44],[8,34],[12,44],[14,29],[16,49],[18,33]],
    "19":[[6,43],[8,33],[12,44],[14,30],[16,51],[18,35]],
    "20":[[6,42],[8,32],[12,44],[14,31],[16,53],[18,36]],
    "21":[[6,41],[8,31],[12,45],[14,33],[16,55],[18,38]],
    "22":[[6,40],[8,29],[12,45],[14,34],[16,56],[18,39]],
    "23":[[6,39],[8,28],[12,45],[14,36],[16,58],[18,41]],
    "24":[[6,38],[8,27],[12,45],[14,37],[17,0],[18,42]],
    "25":[[6,37],[8,25],[12,46],[14,39],[17,2],[18,44]],
    "26":[[6,36],[8,24],[12,46],[14,40],[17,4],[18,46]],
    "27":[[6,35],[8,23],[12,46],[14,42],[17,6],[18,47]],
    "28":[[6,34],[8,21],[12,46],[14,43],[17,8],[18,49]],
    "29":[[6,33],[8,20],[12,47],[14,45],[17,9],[18,50]],
    "30":[[6,31],[8,18],[12,47],[14,46],[17,11],[18,52]],
    "31":[[6,30],[8,16],[12,47],[14,48],[17,13],[18,54]]
  },
  "2":{
    "1":[[6,29],[8,15],[12,47],[14,49],[17,15],[18,55]],
    "2":[[6,28],[8,13],[12,47],[14,51],[17,17],[18,57]],
    "3":[[6,26],[8,11],[12,47],[14,52],[17,19],[18,59]],
    "4":[[6,25],[8,10],[12,47],[14,54],[17,21],[19,0]],
    "5":[[6,23],[8,8],[12,48],[14,56],[17,23],[19,2]],
    "6":[[6,22],[8,6],[12,48],[14,57],[17,25],[19,4]],
    "7":[[6,20],[8,4],[12,48],[14,59],[17,27],[19,5]],
    "8":[[6,19],[8,3],[12,48],[15,0],[17,29],[19,7]],
    "9":[[6,17],[8,1],[12,48],[15,2],[17,31],[19,9]],
    "10":[[6,15],[7,59],[12,48],[15,3],[17,33],[19,10]],
    "11":[[6,14],[7,57],[12,48],[15,5],[17,35],[19,12]],
    "12":[[6,12],[7,55],[12,48],[15,6],[17,37],[19,14]],
    "13":[[6,10],[7,53],[12,48],[15,8],[17,39],[19,16]],
    "14":[[6,9],[7,51],[12,48],[15,10],[17,41],[19,17]],
    "15":[[6,7],[7,49],[12,48],[15,11],[17,43],[19,19]],
    "16":[[6,5],[7,47],[12,48],[15,13],[17,45],[19,21]],
    "17":[[6,3],[7,45],[12,48],[15,14],[17,47],[19,22]],
    "18":[[6,2],[7,43],[12,48],[15,16],[17,49],[19,24]],
    "19":[[6,0],[7,41],[12,48],[15,17],[17,51],[19,26]],
    "20":[[5,58],[7,39],[12,48],[15,19],[17,53],[19,28]],
    "21":[[5,56],[7,36],[12,48],[15,20],[17,55],[19,29]],
    "22":[[5,54],[7,34],[12,48],[15,22],[17,57],[19,31]],
    "23":[[5,52],[7,32],[12,47],[15,23],[17,59],[19,33]],
    "24":[[5,50],[7,30],[12,47],[15,24],[18,1],[19,35]],
    "25":[[5,48],[7,28],[12,47],[15,26],[18,3],[19,37]],
    "26":[[5,46],[7,25],[12,47],[15,27],[18,5],[19,38]],
    "27":[[5,44],[7,23],[12,47],[15,29],[18,7],[19,40]],
    "28":[[5,42],[7,21],[12,47],[15,30],[18,8],[19,42]]
  },
  "3":{
    "1":[[5,40],[7,19],[12,47],[15,32],[18,10],[19,44]],
    "2":[[5,37],[7,16],[12,46],[15,33],[18,12],[19,45]],
    "3":[[5,35],[7,14],[12,46],[15,34],[18,14],[19,47]],
    "4":[[5,33],[7,12],[12,46],[15,36],[18,16],[19,49]],
    "5":[[5,31],[7,9],[12,46],[15,37],[18,18],[19,51]],
    "6":[[5,29],[7,7],[12,46],[15,38],[18,20],[19,52]],
    "7":[[5,27],[7,5],[12,45],[15,40],[18,22],[19,54]],
    "8":[[5,24],[7,2],[12,45],[15,41],[18,24],[19,56]],
    "9":[[5,22],[7,0],[12,45],[15,42],[18,26],[19,58]],
    "10":[[5,20],[6,58],[12,45],[15,44],[18,27],[20,0]],
    "11":[[5,17],[6,55],[12,44],[15,45],[18,29],[20,1]],
    "12":[[5,15],[6,53],[12,44],[15,46],[18,31],[20,3]],
    "13":[[5,13],[6,51],[12,44],[15,47],[18,33],[20,5]],
    "14":[[5,10],[6,48],[12,44],[15,49],[18,35],[20,7]],
    "15":[[5,8],[6,46],[12,43],[15,50],[18,37],[20,9]],
    "16":[[5,6],[6,43],[12,43],[15,51],[18,39],[20,10]],
    "17":[[5,3],[6,41],[12,43],[15,52],[18,40],[20,12]],
    "18":[[5,1],[6,38],[12,42],[15,53],[18,42],[20,14]],
    "19":[[4,58],[6,36],[12,42],[15,54],[18,44],[20,16]],
    "20":[[4,56],[6,34],[12,42],[15,56],[18,46],[20,18]],
    "21":[[4,53],[6,31],[12,41],[15,57],[18,48],[20,20]],
    "22":[[4,51],[6,29],[12,41],[15,58],[18,50],[20,21]],
    "23":[[4,49],[6,26],[12,41],[15,59],[18,51],[20,23]],
    "24":[[4,46],[6,24],[12,41],[16,0],[18,53],[20,25]],
    "25":[[4,44],[6,21],[12,40],[16,1],[18,55],[20,27]],
    "26":[[4,41],[6,19],[12,40],[16,2],[18,57],[20,29]],
    "27":[[4,39],[6,17],[12,40],[16,3],[18,59],[20,31]],
    "28":[[4,36],[6,14],[12,39],[16,4],[19,1],[20,33]],
    "29":[[4,33],[6,12],[12,39],[16,5],[19,2],[20,34]],
    "30":[[4,31],[6,9],[12,39],[16,6],[19,4],[20,36]],
    "31":[[4,28],[6,7],[12,38],[16,7],[19,6],[20,38]]
  },
  "4":{
    "1":[[4,26],[6,4],[12,38],[16,8],[19,8],[20,40]],
    "2":[[4,23],[6,2],[12,38],[16,9],[19,10],[20,42]],
    "3":[[4,21],[5,59],[12,37],[16,10],[19,11],[20,44]],
    "4":[[4,18],[5,57],[12,37],[16,11],[19,13],[20,46]],
    "5":[[4,16],[5,55],[12,37],[16,12],[19,15],[20,48]],
    "6":[[4,13],[5,52],[12,36],[16,13],[19,17],[20,50]],
    "7":[[4,10],[5,50],[12,36],[16,14],[19,19],[20,52]],
    "8":[[4,8],[5,47],[12,36],[16,15],[19,20],[20,54]],
    "9":[[4,5],[5,45],[12,36],[16,16],[19,22],[20,56]],
    "10":[[4,3],[5,43],[12,35],[16,17],[19,24],[20,58]],
    "11":[[4,0],[5,40],[12,35],[16,18],[19,26],[21,0]],
    "12":[[3,57],[5,38],[12,35],[16,19],[19,28],[21,2]],
    "13":[[3,55],[5,35],[12,34],[16,20],[19,29],[21,4]],
    "14":[[3,52],[5,33],[12,34],[16,20],[19,31],[21,6]],
    "15":[[3,50],[5,31],[12,34],[16,21],[19,33],[21,8]],
    "16":[[3,47],[5,28],[12,34],[16,22],[19,35],[21,10]],
    "17":[[3,45],[5,26],[12,33],[16,23],[19,37],[21,12]],
    "18":[[3,42],[5,24],[12,33],[16,24],[19,38],[21,14]],
    "19":[[3,39],[5,22],[12,33],[16,25],[19,40],[21,16]],
    "20":[[3,37],[5,19],[12,33],[16,26],[19,42],[21,18]],
    "21":[[3,34],[5,17],[12,32],[16,26],[19,44],[21,20]],
    "22":[[3,32],[5,15],[12,32],[16,27],[19,46],[21,22]],
    "23":[[3,29],[5,13],[12,32],[16,28],[19,47],[21,24]],
    "24":[[3,27],[5,10],[12,32],[16,29],[19,49],[21,26]],
    "25":[[3,24],[5,8],[12,32],[16,30],[19,51],[21,28]],
    "26":[[3,22],[5,6],[12,32],[16,30],[19,53],[21,30]],
    "27":[[3,19],[5,4],[12,31],[16,31],[19,55],[21,33]],
    "28":[[3,17],[5,2],[12,31],[16,32],[19,57],[21,35]],
    "29":[[3,14],[5,0],[12,31],[16,33],[19,58],[21,37]],
    "30":[[3,12],[4,58],[12,31],[16,33],[20,0],[21,39]]
  },
  "5":{
    "1":[[3,9],[4,56],[12,31],[16,34],[20,2],[21,41]],
    "2":[[3,7],[4,54],[12,31],[16,35],[20,4],[21,43]],
    "3":[[3,4],[4,51],[12,31],[16,36],[20,6],[21,45]],
    "4":[[3,2],[4,50],[12,30],[16,37],[20,7],[21,48]],
    "5":[[3,0],[4,48],[12,30],[16,37],[20,9],[21,50]],
    "6":[[2,57],[4,46],[12,30],[16,38],[20,11],[21,52]],
    "7":[[2,55],[4,44],[12,30],[16,39],[20,13],[21,54]],
    "8":[[2,53],[4,42],[12,30],[16,39],[20,14],[21,56]],
    "9":[[2,50],[4,40],[12,30],[16,40],[20,16],[21,58]],
    "10":[[2,48],[4,38],[12,30],[16,41],[20,18],[22,0]],
    "11":[[2,46],[4,36],[12,30],[16,42],[20,20],[22,2]],
    "12":[[2,43],[4,35],[12,30],[16,42],[20,21],[22,5]],
    "13":[[2,41],[4,33],[12,30],[16,43],[20,23],[22,7]],
    "14":[[2,39],[4,31],[12,30],[16,44],[20,25],[22,9]],
    "15":[[2,37],[4,29],[12,30],[16,44],[20,27],[22,11]],
    "16":[[2,35],[4,28],[12,30],[16,45],[20,28],[22,13]],
    "17":[[2,33],[4,26],[12,30],[16,46],[20,30],[22,15]],
    "18":[[2,31],[4,25],[12,30],[16,46],[20,32],[22,17]],
    "19":[[2,29],[4,23],[12,30],[16,47],[20,33],[22,17]],
    "20":[[2,27],[4,22],[12,30],[16,48],[20,35],[22,17]],
    "21":[[2,25],[4,20],[12,30],[16,48],[20,36],[22,17]],
    "22":[[2,23],[4,19],[12,30],[16,49],[20,38],[22,18]],
    "23":[[2,21],[4,18],[12,30],[16,50],[20,39],[22,18]],
    "24":[[2,19],[4,16],[12,31],[16,50],[20,41],[22,18]],
    "25":[[2,17],[4,15],[12,31],[16,51],[20,42],[22,19]],
    "26":[[2,16],[4,14],[12,31],[16,51],[20,44],[22,19]],
    "27":[[2,14],[4,12],[12,31],[16,52],[20,45],[22,19]],
    "28":[[2,12],[4,11],[12,31],[16,53],[20,47],[22,20]],
    "29":[[2,11],[4,10],[12,31],[16,53],[20,48],[22,20]],
    "30":[[2,9],[4,9],[12,31],[16,54],[20,49],[22,21]],
    "31":[[2,8],[4,8],[12,31],[16,54],[20,51],[22,21]]
  },
  "6":{
    "1":[[2,6],[4,7],[12,32],[16,55],[20,52],[22,22]],
    "2":[[2,5],[4,6],[12,32],[16,55],[20,53],[22,23]],
    "3":[[2,4],[4,5],[12,32],[16,56],[20,54],[22,24]],
    "4":[[2,3],[4,5],[12,32],[16,56],[20,56],[22,26]],
    "5":[[2,1],[4,4],[12,32],[16,57],[20,57],[22,27]],
    "6":[[2,0],[4,3],[12,32],[16,57],[20,58],[22,28]],
    "7":[[1,59],[4,3],[12,33],[16,58],[20,59],[22,29]],
    "8":[[1,58],[4,2],[12,33],[16,58],[21,0],[22,30]],
    "9":[[1,57],[4,1],[12,33],[16,58],[21,1],[22,31]],
    "10":[[1,57],[4,1],[12,33],[16,59],[21,2],[22,32]],
    "11":[[1,56],[4,0],[12,33],[16,59],[21,2],[22,32]],
    "12":[[1,55],[4,0],[12,34],[17,0],[21,3],[22,33]],
    "13":[[1,55],[4,0],[12,34],[17,0],[21,4],[22,34]],
    "14":[[1,54],[4,0],[12,34],[17,0],[21,5],[22,35]],
    "15":[[1,54],[3,59],[12,34],[17,1],[21,5],[22,35]],
    "16":[[1,53],[3,59],[12,34],[17,1],[21,6],[22,36]],
    "17":[[1,53],[3,59],[12,35],[17,1],[21,6],[22,36]],
    "18":[[1,53],[3,59],[12,35],[17,2],[21,7],[22,37]],
    "19":[[1,53],[3,59],[12,35],[17,2],[21,7],[22,37]],
    "20":[[1,53],[3,59],[12,35],[17,2],[21,7],[22,37]],
    "21":[[1,53],[3,59],[12,35],[17,2],[21,8],[22,38]],
    "22":[[1,53],[3,59],[12,36],[17,3],[21,8],[22,38]],
    "23":[[1,53],[4,0],[12,36],[17,3],[21,8],[22,38]],
    "24":[[1,53],[4,0],[12,36],[17,3],[21,8],[22,38]],
    "25":[[1,54],[4,0],[12,36],[17,3],[21,8],[22,38]],
    "26":[[1,54],[4,1],[12,36],[17,3],[21,8],[22,38]],
    "27":[[1,55],[4,1],[12,37],[17,3],[21,8],[22,38]],
    "28":[[1,56],[4,2],[12,37],[17,3],[21,8],[22,38]],
    "29":[[1,56],[4,2],[12,37],[17,4],[21,8],[22,38]],
    "30":[[1,57],[4,3],[12,37],[17,4],[21,8],[22,38]]
  },
  "7":{
    "1":[[1,58],[4,3],[12,37],[17,4],[21,7],[22,37]],
    "2":[[1,59],[4,4],[12,38],[17,4],[21,7],[22,37]],
    "3":[[2,0],[4,5],[12,38],[17,4],[21,7],[22,37]],
    "4":[[2,1],[4,6],[12,38],[17,4],[21,6],[22,36]],
    "5":[[2,2],[4,6],[12,38],[17,4],[21,6],[22,36]],
    "6":[[2,4],[4,7],[12,38],[17,3],[21,5],[22,36]],
    "7":[[2,5],[4,8],[12,38],[17,3],[21,4],[22,35]],
    "8":[[2,6],[4,9],[12,39],[17,3],[21,4],[22,35]],
    "9":[[2,8],[4,10],[12,39],[17,3],[21,3],[22,35]],
    "10":[[2,9],[4,11],[12,39],[17,3],[21,2],[22,34]],
    "11":[[2,11],[4,12],[12,39],[17,3],[21,1],[22,34]],
    "12":[[2,12],[4,14],[12,39],[17,2],[21,0],[22,34]],
    "13":[[2,14],[4,15],[12,39],[17,2],[21,0],[22,34]],
    "14":[[2,16],[4,16],[12,39],[17,2],[20,59],[22,33]],
    "15":[[2,17],[4,17],[12,39],[17,2],[20,57],[22,33]],
    "16":[[2,19],[4,19],[12,39],[17,1],[20,56],[22,33]],
    "17":[[2,21],[4,20],[12,40],[17,1],[20,55],[22,32]],
    "18":[[2,23],[4,21],[12,40],[17,1],[20,54],[22,32]],
    "19":[[2,25],[4,23],[12,40],[17,0],[20,53],[22,32]],
    "20":[[2,27],[4,24],[12,40],[17,0],[20,52],[22,31]],
    "21":[[2,28],[4,25],[12,40],[16,59],[20,50],[22,31]],
    "22":[[2,30],[4,27],[12,40],[16,59],[20,49],[22,31]],
    "23":[[2,32],[4,28],[12,40],[16,58],[20,47],[22,30]],
    "24":[[2,34],[4,30],[12,40],[16,58],[20,46],[22,30]],
    "25":[[2,36],[4,31],[12,40],[16,57],[20,45],[22,30]],
    "26":[[2,38],[4,33],[12,40],[16,57],[20,43],[22,29]],
    "27":[[2,40],[4,34],[12,40],[16,56],[20,42],[22,27]],
    "28":[[2,43],[4,36],[12,40],[16,56],[20,40],[22,25]],
    "29":[[2,45],[4,38],[12,40],[16,55],[20,38],[22,23]],
    "30":[[2,47],[4,39],[12,40],[16,54],[20,37],[22,21]],
    "31":[[2,49],[4,41],[12,40],[16,54],[20,35],[22,19]]
  },
  "8":{
    "1":[[2,51],[4,43],[12,40],[16,53],[20,33],[22,17]],
    "2":[[2,53],[4,44],[12,40],[16,52],[20,31],[22,15]],
    "3":[[2,55],[4,46],[12,40],[16,51],[20,30],[22,13]],
    "4":[[2,57],[4,48],[12,40],[16,51],[20,28],[22,10]],
    "5":[[2,59],[4,49],[12,40],[16,50],[20,26],[22,8]],
    "6":[[3,2],[4,51],[12,40],[16,49],[20,24],[22,6]],
    "7":[[3,4],[4,53],[12,39],[16,48],[20,22],[22,4]],
    "8":[[3,6],[4,54],[12,39],[16,47],[20,20],[22,1]],
    "9":[[3,8],[4,56],[12,39],[16,46],[20,18],[21,59]],
    "10":[[3,10],[4,58],[12,39],[16,45],[20,16],[21,57]],
    "11":[[3,12],[5,0],[12,39],[16,44],[20,14],[21,54]],
    "12":[[3,14],[5,1],[12,39],[16,43],[20,12],[21,52]],
    "13":[[3,17],[5,3],[12,39],[16,42],[20,10],[21,50]],
    "14":[[3,19],[5,5],[12,39],[16,41],[20,8],[21,47]],
    "15":[[3,21],[5,7],[12,38],[16,40],[20,6],[21,45]],
    "16":[[3,23],[5,8],[12,38],[16,39],[20,4],[21,42]],
    "17":[[3,25],[5,10],[12,38],[16,38],[20,2],[21,40]],
    "18":[[3,27],[5,12],[12,38],[16,37],[20,0],[21,37]],
    "19":[[3,29],[5,14],[12,38],[16,36],[19,58],[21,35]],
    "20":[[3,31],[5,15],[12,37],[16,35],[19,56],[21,33]],
    "21":[[3,34],[5,17],[12,37],[16,33],[19,53],[21,30]],
    "22":[[3,36],[5,19],[12,37],[16,32],[19,51],[21,28]],
    "23":[[3,38],[5,21],[12,37],[16,31],[19,49],[21,25]],
    "24":[[3,40],[5,22],[12,37],[16,30],[19,47],[21,23]],
    "25":[[3,42],[5,24],[12,36],[16,28],[19,44],[21,20]],
    "26":[[3,44],[5,26],[12,36],[16,27],[19,42],[21,18]],
    "27":[[3,46],[5,28],[12,36],[16,26],[19,40],[21,15]],
    "28":[[3,48],[5,29],[12,36],[16,24],[19,38],[21,12]],
    "29":[[3,50],[5,31],[12,35],[16,23],[19,35],[21,10]],
    "30":[[3,52],[5,33],[12,35],[16,22],[19,33],[21,7]],
    "31":[[3,54],[5,35],[12,35],[16,20],[19,31],[21,5]]
  },
  "9":{
    "1":[[3,56],[5,37],[12,34],[16,19],[19,28],[21,2]],
    "2":[[3,58],[5,38],[12,34],[16,17],[19,26],[21,0]],
    "3":[[4,0],[5,40],[12,34],[16,16],[19,23],[20,57]],
    "4":[[4,2],[5,42],[12,33],[16,14],[19,21],[20,55]],
    "5":[[4,4],[5,44],[12,33],[16,13],[19,19],[20,52]],
    "6":[[4,6],[5,45],[12,33],[16,11],[19,16],[20,50]],
    "7":[[4,8],[5,47],[12,32],[16,10],[19,14],[20,47]],
    "8":[[4,10],[5,49],[12,32],[16,8],[19,12],[20,44]],
    "9":[[4,11],[5,50],[12,32],[16,7],[19,9],[20,42]],
    "10":[[4,13],[5,52],[12,31],[16,5],[19,7],[20,39]],
    "11":[[4,15],[5,54],[12,31],[16,3],[19,4],[20,37]],
    "12":[[4,17],[5,56],[12,31],[16,2],[19,2],[20,34]],
    "13":[[4,19],[5,57],[12,30],[16,0],[18,59],[20,32]],
    "14":[[4,21],[5,59],[12,30],[15,59],[18,57],[20,29]],
    "15":[[4,23],[6,1],[12,30],[15,57],[18,54],[20,27]],
    "16":[[4,24],[6,3],[12,29],[15,55],[18,52],[20,24]],
    "17":[[4,26],[6,4],[12,29],[15,53],[18,49],[20,22]],
    "18":[[4,28],[6,6],[12,29],[15,52],[18,47],[20,19]],
    "19":[[4,30],[6,8],[12,28],[15,50],[18,45],[20,16]],
    "20":[[4,32],[6,10],[12,28],[15,48],[18,42],[20,14]],
    "21":[[4,33],[6,11],[12,27],[15,47],[18,40],[20,11]],
    "22":[[4,35],[6,13],[12,27],[15,45],[18,37],[20,9]],
    "23":[[4,37],[6,15],[12,27],[15,43],[18,35],[20,6]],
    "24":[[4,39],[6,16],[12,26],[15,41],[18,32],[20,4]],
    "25":[[4,40],[6,18],[12,26],[15,39],[18,30],[20,1]],
    "26":[[4,42],[6,20],[12,26],[15,38],[18,27],[19,59]],
    "27":[[4,44],[6,22],[12,25],[15,36],[18,25],[19,57]],
    "28":[[4,46],[6,23],[12,25],[15,34],[18,22],[19,54]],
    "29":[[4,47],[6,25],[12,24],[15,32],[18,20],[19,52]],
    "30":[[4,49],[6,27],[12,24],[15,30],[18,17],[19,49]]
  },
  "10":{
    "1":[[4,51],[6,29],[12,24],[15,29],[18,15],[19,47]],
    "2":[[4,53],[6,30],[12,23],[15,27],[18,13],[19,44]],
    "3":[[4,54],[6,32],[12,23],[15,25],[18,10],[19,42]],
    "4":[[4,56],[6,34],[12,23],[15,23],[18,8],[19,40]],
    "5":[[4,58],[6,36],[12,22],[15,21],[18,5],[19,37]],
    "6":[[4,59],[6,37],[12,22],[15,20],[18,3],[19,35]],
    "7":[[5,1],[6,39],[12,22],[15,18],[18,0],[19,33]],
    "8":[[5,3],[6,41],[12,21],[15,16],[17,58],[19,30]],
    "9":[[5,4],[6,43],[12,21],[15,14],[17,56],[19,28]],
    "10":[[5,6],[6,45],[12,21],[15,12],[17,53],[19,26]],
    "11":[[5,8],[6,46],[12,21],[15,10],[17,51],[19,24]],
    "12":[[5,9],[6,48],[12,20],[15,9],[17,48],[19,21]],
    "13":[[5,11],[6,50],[12,20],[15,7],[17,46],[19,19]],
    "14":[[5,13],[6,52],[12,20],[15,5],[17,44],[19,17]],
    "15":[[5,14],[6,54],[12,20],[15,3],[17,41],[19,15]],
    "16":[[5,16],[6,55],[12,19],[15,1],[17,39],[19,13]],
    "17":[[5,18],[6,57],[12,19],[15,0],[17,37],[19,11]],
    "18":[[5,19],[6,59],[12,19],[14,58],[17,35],[19,8]],
    "19":[[5,21],[7,1],[12,19],[14,56],[17,32],[19,6]],
    "20":[[5,23],[7,3],[12,18],[14,54],[17,30],[19,4]],
    "21":[[5,24],[7,5],[12,18],[14,53],[17,28],[19,2]],
    "22":[[5,26],[7,6],[12,18],[14,51],[17,26],[19,0]],
    "23":[[5,28],[7,8],[12,18],[14,49],[17,23],[18,58]],
    "24":[[5,29],[7,10],[12,18],[14,47],[17,21],[18,56]],
    "25":[[5,31],[7,12],[12,18],[14,46],[17,19],[18,54]],
    "26":[[5,33],[7,14],[12,17],[14,44],[17,17],[18,53]],
    "27":[[5,34],[7,16],[12,17],[14,42],[17,15],[18,51]],
    "28":[[5,36],[7,18],[12,17],[14,41],[17,13],[18,49]],
    "29":[[5,38],[7,20],[12,17],[14,39],[17,11],[18,47]],
    "30":[[5,39],[7,22],[12,17],[14,38],[17,9],[18,45]],
    "31":[[5,41],[7,23],[12,17],[14,36],[17,7],[18,43]]
  },
  "11":{
    "1":[[5,42],[7,25],[12,17],[14,35],[17,5],[18,42]],
    "2":[[5,44],[7,27],[12,17],[14,33],[17,3],[18,40]],
    "3":[[5,46],[7,29],[12,17],[14,31],[17,1],[18,38]],
    "4":[[5,47],[7,31],[12,17],[14,30],[16,59],[18,37]],
    "5":[[5,49],[7,33],[12,17],[14,29],[16,57],[18,35]],
    "6":[[5,51],[7,35],[12,17],[14,27],[16,55],[18,34]],
    "7":[[5,52],[7,37],[12,17],[14,26],[16,53],[18,32]],
    "8":[[5,54],[7,39],[12,17],[14,24],[16,52],[18,31]],
    "9":[[5,56],[7,41],[12,17],[14,23],[16,50],[18,29]],
    "10":[[5,57],[7,43],[12,17],[14,22],[16,48],[18,28]],
    "11":[[5,59],[7,45],[12,18],[14,20],[16,47],[18,26]],
    "12":[[6,0],[7,46],[12,18],[14,19],[16,45],[18,25]],
    "13":[[6,2],[7,48],[12,18],[14,18],[16,43],[18,24]],
    "14":[[6,4],[7,50],[12,18],[14,17],[16,42],[18,22]],
    "15":[[6,5],[7,52],[12,18],[14,16],[16,40],[18,21]],
    "16":[[6,7],[7,54],[12,18],[14,14],[16,39],[18,20]],
    "17":[[6,8],[7,56],[12,19],[14,13],[16,37],[18,19]],
    "18":[[6,10],[7,58],[12,19],[14,12],[16,36],[18,18]],
    "19":[[6,11],[8,0],[12,19],[14,11],[16,34],[18,17]],
    "20":[[6,13],[8,1],[12,19],[14,10],[16,33],[18,16]],
    "21":[[6,14],[8,3],[12,20],[14,9],[16,32],[18,15]],
    "22":[[6,16],[8,5],[12,20],[14,9],[16,31],[18,14]],
    "23":[[6,17],[8,7],[12,20],[14,8],[16,29],[18,13]],
    "24":[[6,19],[8,9],[12,20],[14,7],[16,28],[18,12]],
    "25":[[6,20],[8,10],[12,21],[14,6],[16,27],[18,11]],
    "26":[[6,22],[8,12],[12,21],[14,5],[16,26],[18,10]],
    "27":[[6,23],[8,14],[12,21],[14,5],[16,25],[18,10]],
    "28":[[6,24],[8,15],[12,22],[14,4],[16,24],[18,9]],
    "29":[[6,26],[8,17],[12,22],[14,3],[16,23],[18,8]],
    "30":[[6,27],[8,18],[12,22],[14,3],[16,22],[18,8]]
  },
  "12":{
    "1":[[6,28],[8,20],[12,23],[14,2],[16,22],[18,7]],
    "2":[[6,30],[8,22],[12,23],[14,2],[16,21],[18,7]],
    "3":[[6,31],[8,23],[12,24],[14,1],[16,20],[18,6]],
    "4":[[6,32],[8,24],[12,24],[14,1],[16,20],[18,6]],
    "5":[[6,33],[8,26],[12,24],[14,1],[16,19],[18,5]],
    "6":[[6,34],[8,27],[12,25],[14,0],[16,18],[18,5]],
    "7":[[6,36],[8,29],[12,25],[14,0],[16,18],[18,5]],
    "8":[[6,37],[8,30],[12,26],[14,0],[16,18],[18,4]],
    "9":[[6,38],[8,31],[12,26],[14,0],[16,17],[18,4]],
    "10":[[6,39],[8,32],[12,27],[14,0],[16,17],[18,4]],
    "11":[[6,40],[8,33],[12,27],[14,0],[16,17],[18,4]],
    "12":[[6,41],[8,35],[12,28],[14,0],[16,16],[18,4]],
    "13":[[6,42],[8,36],[12,28],[14,0],[16,16],[18,4]],
    "14":[[6,42],[8,37],[12,28],[14,0],[16,16],[18,4]],
    "15":[[6,43],[8,38],[12,29],[14,0],[16,16],[18,4]],
    "16":[[6,44],[8,38],[12,29],[14,0],[16,16],[18,4]],
    "17":[[6,45],[8,39],[12,30],[14,0],[16,16],[18,5]],
    "18":[[6,45],[8,40],[12,30],[14,0],[16,17],[18,5]],
    "19":[[6,46],[8,41],[12,31],[14,1],[16,17],[18,5]],
    "20":[[6,47],[8,41],[12,31],[14,1],[16,17],[18,5]],
    "21":[[6,47],[8,42],[12,32],[14,1],[16,18],[18,6]],
    "22":[[6,48],[8,43],[12,32],[14,2],[16,18],[18,6]],
    "23":[[6,48],[8,43],[12,33],[14,2],[16,19],[18,7]],
    "24":[[6,49],[8,43],[12,33],[14,3],[16,19],[18,7]],
    "25":[[6,49],[8,44],[12,34],[14,3],[16,20],[18,8]],
    "26":[[6,49],[8,44],[12,34],[14,4],[16,20],[18,9]],
    "27":[[6,50],[8,44],[12,35],[14,5],[16,21],[18,9]],
    "28":[[6,50],[8,44],[12,35],[14,5],[16,22],[18,10]],
    "29":[[6,50],[8,45],[12,36],[14,6],[16,23],[18,11]],
    "30":[[6,50],[8,45],[12,36],[14,7],[16,24],[18,11]],
    "31":[[6,50],[8,45],[12,37],[14,8],[16,24],[18,12]]
  }
}