<?xml version="1.0" encoding="UTF-8" standalone="no"?>
<!DOCTYPE svg PUBLIC "-//W3C//DTD SVG 1.1//EN" "http://www.w3.org/Graphics/SVG/1.1/DTD/svg11.dtd">
<svg width="100%" height="100%" viewBox="0 0 145 45" version="1.1" xmlns="http://www.w3.org/2000/svg" xmlns:xlink="http://www.w3.org/1999/xlink" xml:space="preserve" xmlns:serif="http://www.serif.com/" style="fill-rule:evenodd;clip-rule:evenodd;stroke-linejoin:round;stroke-miterlimit:1.41421;">
    <g id="Layer-1" serif:id="Layer 1" transform="matrix(1,0,0,1,-33.799,0)">
        <g transform="matrix(0.762734,0,0,0.669566,25.2967,-91.2958)">
            <path d="M30.378,142.017L34.445,142.017L34.445,173.576L14.624,173.576L14.624,165.484L19.706,165.484L19.706,160.226C17.387,159.726 19.749,162.956 18.18,163.056L14.624,163.056L14.624,154.96C17.396,155.046 20.734,154.685 22.755,155.369C24.649,157.638 22.966,162.751 24.278,165.484C26.595,163.548 24.658,158.23 25.295,154.96L29.362,154.96C29.695,158.335 28.687,162.783 29.866,165.484C31.055,158.468 30.04,149.703 30.378,142.017"/>
        </g>
        <g transform="matrix(0.762734,0,0,0.669566,25.2967,-91.2958)">
            <path d="M50.707,142.017C50.371,152.4 51.385,163.865 50.197,173.576L47.658,173.576C45.323,164.714 47.295,152.468 46.64,142.017L50.707,142.017Z"/>
        </g>
        <g transform="matrix(0.762734,0,0,0.669566,25.2967,-91.2958)">
            <path d="M183.366,165.484C183.057,164.646 184.188,162.673 182.347,163.056C182.657,163.89 181.527,165.867 183.366,165.484M163.034,165.484C163.657,164.828 164.392,160.642 162.525,160.629C162.05,161.396 161.062,165.38 163.034,165.484M193.022,142.017L197.089,142.017L197.089,173.576L163.546,173.576L163.546,171.15C162.464,172.584 161.722,174.285 157.947,173.576C158.122,167.507 157.22,160.584 159.473,156.177C162.109,155.443 163.171,153.455 167.101,153.748C167.434,157.529 166.424,162.379 167.61,165.484C169.926,163.548 167.991,158.23 168.625,154.961L172.69,154.961C173.025,158.336 172.016,162.783 173.199,165.484C175.514,163.548 173.582,158.23 174.218,154.961L177.773,154.961C178.907,157.703 177.981,162.082 178.279,165.484C181.14,163.982 178.41,158.031 182.855,157.795C186.882,158.23 185.045,163.339 186.922,165.484C188.102,163.588 187.095,159.957 187.431,157.392C187.253,156.048 184.5,156.757 182.855,156.58L182.855,152.533C185.334,152.72 188.808,152.111 190.481,152.937C192.764,155.705 190.437,162.144 192.009,165.484C194.367,159.267 192.352,149.574 193.022,142.017"/>
        </g>
        <g transform="matrix(0.762734,0,0,0.669566,25.2967,-91.2958)">
            <path d="M172.184,146.869L172.184,149.297C171.461,149.264 170.746,149.23 170.659,149.703C169.87,151.14 172.384,149.947 172.184,150.916L172.184,152.533L169.134,152.533C169.912,150.459 168.33,146.502 172.184,146.869"/>
        </g>
        <g transform="matrix(0.762734,0,0,0.669566,25.2967,-91.2958)">
            <path d="M25.802,148.49L28.852,148.49C28.716,149.865 29.25,151.767 28.345,152.533L25.802,152.533L25.802,148.49Z"/>
        </g>
        <g transform="matrix(0.762734,0,0,0.669566,25.2967,-91.2958)">
            <path d="M159.473,148.49L162.525,148.49C162.215,149.996 163.486,152.758 161.002,152.533C158.517,152.758 159.785,149.996 159.473,148.49"/>
        </g>
        <g transform="matrix(0.762734,0,0,0.669566,25.2967,-91.2958)">
            <rect x="163.034" y="148.49" width="2.541" height="4.043"/>
        </g>
        <g transform="matrix(0.762734,0,0,0.669566,25.2967,-91.2958)">
            <path d="M35.968,154.96L40.037,154.96C40.371,158.335 39.362,162.782 40.544,165.483C42.859,163.548 40.92,158.23 41.56,154.96L45.117,154.96C46.283,160.372 45.298,167.493 45.627,173.575L40.037,173.575C39.695,175.329 40.014,176.558 42.575,176.003C42.087,177.235 43.664,180.108 41.56,180.048C38.972,180.626 40.391,178.011 40.037,176.812C38.981,178.939 39.106,182.005 34.445,181.263C37.24,174.319 35.489,163.753 35.968,154.96"/>
        </g>
        <g transform="matrix(0.762734,0,0,0.669566,25.2967,-91.2958)">
            <rect x="43.084" y="176.003" width="2.543" height="4.045"/>
        </g>
        <g transform="matrix(0.762734,0,0,0.669566,25.2967,-91.2958)">
            <rect x="173.199" y="176.003" width="2.539" height="4.045"/>
        </g>
        <g transform="matrix(0.762734,0,0,0.669566,25.2967,-91.2958)">
            <rect x="176.248" y="176.003" width="2.542" height="4.045"/>
        </g>
        <g transform="matrix(0.79616,0,0,0.423713,27.0288,-46.0964)">
            <path d="M203.188,184.097C140.497,185.978 73.396,184.368 9.026,184.906C8.6,184.978 8.551,184.749 8.521,184.501C8.442,184.031 8.635,183.783 9.026,183.693C73.579,183.96 139.484,183.152 203.188,184.097"/>
        </g>
        <g transform="matrix(0.762734,0,0,0.669566,25.2967,-91.2958)">
            <path d="M122.376,140.8C120.732,147.195 120.644,159.095 122.376,165.484C125.75,164.261 123.01,158.169 123.896,154.96L127.967,154.96C128.298,158.335 127.289,162.782 128.474,165.484C130.785,163.548 128.851,158.23 129.486,154.96L133.555,154.96L133.555,165.484C135.873,163.548 133.933,158.23 134.569,154.96L138.638,154.96C139.803,160.372 138.821,167.493 139.146,173.575L113.223,173.575L113.223,165.484L117.292,165.484C116.961,157.923 117.956,149.308 116.781,142.417C114.933,148.228 117.955,157.915 115.257,163.056C111.714,162.757 113.223,156.757 113.223,153.747L113.223,142.823C113.344,139.768 115.641,139.899 117.58,140.285C118.618,140.492 122.376,140.8 122.376,140.8Z"/>
        </g>
        <g transform="matrix(0.762734,0,0,0.669566,25.2967,-91.2958)">
            <path d="M140.162,141.609L142.699,141.609C143.385,146.093 143.502,152.922 143.21,158.603C143.137,160.027 144.393,162.97 141.686,163.056C138.955,161.898 140.162,156.675 140.162,153.345L140.162,142.824L140.162,141.609Z"/>
        </g>
        <g transform="matrix(0.762734,0,0,0.669566,25.2967,-91.2958)">
            <path d="M148.297,141.609L148.297,173.576L140.161,173.576L140.161,165.484L144.23,165.484L144.23,141.609L148.297,141.609Z"/>
        </g>
        <g transform="matrix(0.762734,0,0,0.669566,25.2967,-91.2958)">
            <path d="M153.377,141.609C154.216,151.328 154.228,163.859 153.377,173.576L150.326,173.576C147.984,165.027 149.969,152.937 149.313,142.824C148.972,141.07 151.671,141.732 153.377,141.609"/>
        </g>
        <g transform="matrix(0.762734,0,0,0.669566,25.2967,-91.2958)">
            <path d="M75.613,148.49L78.664,148.49L78.664,152.533L76.123,152.533C75.218,151.767 75.749,149.865 75.613,148.49"/>
        </g>
        <g transform="matrix(0.762734,0,0,0.669566,25.2967,-91.2958)">
            <rect x="87.812" y="148.49" width="3.049" height="4.043"/>
        </g>
        <g transform="matrix(0.762734,0,0,0.669566,25.2967,-91.2958)">
            <rect x="91.367" y="148.49" width="2.543" height="4.043"/>
        </g>
        <g transform="matrix(0.762734,0,0,0.669566,25.2967,-91.2958)">
            <path d="M107.634,165.484C107.308,163.986 108.289,161.451 107.127,160.629C106.893,161.589 105.499,165.254 107.634,165.484M91.366,165.484C91.044,163.986 92.027,161.451 90.861,160.629C90.627,161.589 89.235,165.254 91.366,165.484M95.943,153.748L95.943,165.484C98.262,163.548 96.326,158.23 96.959,154.961L101.026,154.961C101.363,158.336 100.353,162.783 101.536,165.484C103.691,163.019 101.906,157.418 104.586,155.369C106.472,154.711 109.584,155.029 112.205,154.961L112.205,173.576L92.893,173.576C91.573,173.818 91.067,173.412 91.366,172.363C90.854,173.707 88.651,173.707 86.288,173.576C86.744,164.765 83.415,152.947 95.943,153.748"/>
        </g>
        <g transform="matrix(0.762734,0,0,0.669566,25.2967,-91.2958)">
            <path d="M77.648,165.484C77.32,163.986 78.306,161.451 77.138,160.629C77.187,161.814 75.338,165.117 77.648,165.484M60.365,154.961C59.725,158.771 58.437,164.213 59.857,168.314C64.699,167.046 59.768,157.994 62.908,155.369C64.786,154.716 69.667,154.716 71.546,155.369C72.179,158.507 70.251,163.681 72.563,165.484C73.575,163.896 71.414,157.341 74.598,155.369C76.482,154.711 79.593,155.029 82.22,154.961L82.22,173.576L66.973,173.576L66.973,160.629C64.727,164.371 66.541,171.345 65.957,176.408L55.287,176.408C56.054,171.482 50.447,153.976 60.365,154.961"/>
        </g>
        <g transform="matrix(0.762734,0,0,0.669566,25.2967,-91.2958)">
            <rect x="95.943" y="176.003" width="6.098" height="4.045"/>
        </g>
        <g transform="matrix(0.762734,0,0,0.669566,25.2967,-91.2958)">
            <path d="M141.178,176.003L143.209,176.003C143.614,177.671 142.99,178.521 141.686,178.835C142.99,179.149 143.614,179.997 143.209,181.669L140.161,181.669C140.239,179.569 140.532,177.648 141.178,176.003"/>
        </g>
        <g transform="matrix(0.762734,0,0,0.669566,25.2967,-91.2958)">
            <path d="M57.317,178.835L60.364,178.835L60.364,182.884L57.827,182.884C56.923,182.116 57.453,180.208 57.317,178.835"/>
        </g>
        <g transform="matrix(0.762734,0,0,0.669566,25.2967,-91.2958)">
            <rect x="60.876" y="178.835" width="2.542" height="4.049"/>
        </g>
        <g transform="matrix(0.543185,0,0,0.624241,30.9705,-82.0772)">
            <g transform="matrix(1,0,0,1,8.504,199.342)">
                <text x="0px" y="0px" style="font-family:'Arial-BoldMT', 'Arial', sans-serif;font-weight:700;font-size:19.102px;">I</text>
            </g>
            <g transform="matrix(1,0,0,1,13.63,199.342)">
                <text x="0px" y="0px" style="font-family:'Arial-BoldMT', 'Arial', sans-serif;font-weight:700;font-size:19.102px;">slamic Foundation of Ireland</text>
            </g>
        </g>
    </g>
</svg>
